<?xml version="1.0" encoding="utf-8"?>
<!-- Generator: Adobe Illustrator 19.2.0, SVG Export Plug-In . SVG Version: 6.00 Build 0)  -->
<svg version="1.1" xmlns="http://www.w3.org/2000/svg" xmlns:xlink="http://www.w3.org/1999/xlink" x="0px" y="0px"
	 viewBox="0 0 343.6 116" style="enable-background:new 0 0 343.6 116;" xml:space="preserve">
<style type="text/css">
	.st0{fill-rule:evenodd;clip-rule:evenodd;fill:#E9511E;}
	.st1{fill:#E9511D;}
	.st2{fill:#575756;}
	.st3{fill:#FFFFFF;}
</style>
<g id="Form">
	<path class="st0" d="M62.1,0.7c43.4-5.3,61.2,19.2,61.2,53s-26.3,58.1-61.2,53c-33.4-4.9-65.5-19.4-61.8-53
		C4,20.2,28.6,4.8,62.1,0.7z"/>
	<path class="st0" d="M122.8,53.3c4.3,0,7.8,3.5,7.8,7.8s-3.5,7.8-7.8,7.8c-4.3,0-7.8-3.5-7.8-7.8S118.5,53.3,122.8,53.3z"/>
</g>
<g id="Typografi">
	<g>
		<path class="st1" d="M155.3,65.1c-0.7,0-1.4-0.1-2-0.2c-0.6-0.2-1.1-0.4-1.5-0.9c-0.4-0.4-0.7-1-0.9-1.7c-0.2-0.7-0.3-1.7-0.3-2.8
			v-1.8c0-1.2,0.1-2.1,0.3-2.8c0.2-0.7,0.5-1.3,0.9-1.7c0.4-0.4,0.9-0.7,1.5-0.8c0.6-0.2,1.2-0.2,2-0.2c0.7,0,1.3,0.1,2,0.4
			c0.7,0.3,1.3,0.6,1.8,1v-5.4h2v16.8h-1.3l-0.4-1.2c-0.6,0.5-1.2,0.8-1.9,1.1S156,65.1,155.3,65.1z M155.6,63.5
			c0.5,0,1.2-0.1,1.8-0.4c0.7-0.3,1.2-0.6,1.7-1.1v-6.8c-0.5-0.4-1-0.8-1.7-1c-0.6-0.3-1.3-0.4-1.8-0.4c-0.5,0-1,0.1-1.4,0.2
			c-0.4,0.1-0.7,0.3-0.9,0.6c-0.2,0.3-0.4,0.7-0.5,1.2c-0.1,0.5-0.2,1.2-0.2,2v1.7c0,0.8,0.1,1.5,0.2,2c0.1,0.5,0.3,0.9,0.5,1.2
			c0.2,0.3,0.6,0.5,0.9,0.7S155.1,63.5,155.6,63.5z"/>
		<path class="st1" d="M163.7,61.5c0-1.1,0.3-1.9,1-2.5c0.6-0.6,1.6-1,3-1l4.2-0.3v-1.5c0-0.4,0-0.8-0.1-1.1
			c-0.1-0.3-0.2-0.6-0.5-0.8s-0.5-0.3-0.9-0.4c-0.4-0.1-0.8-0.1-1.4-0.1c-1,0-1.8,0.2-2.2,0.5c-0.4,0.3-0.7,1-0.7,1.8h-2
			c0-0.8,0.1-1.4,0.3-1.9c0.2-0.5,0.5-0.9,0.9-1.2s0.9-0.5,1.5-0.7c0.6-0.1,1.3-0.2,2-0.2c0.9,0,1.6,0.1,2.2,0.2
			c0.6,0.2,1.1,0.4,1.5,0.7c0.4,0.3,0.7,0.7,0.8,1.3s0.3,1.1,0.3,1.9v8.7h-1.3l-0.5-1.2c-0.6,0.5-1.2,0.9-1.9,1.1
			c-0.6,0.3-1.3,0.4-2.2,0.4c-1.4,0-2.5-0.3-3.3-0.9C164.1,63.6,163.7,62.7,163.7,61.5z M168.2,63.5c0.8,0,1.5-0.1,2-0.4
			c0.6-0.2,1.1-0.6,1.7-1.1V59l-4,0.4c-0.8,0.1-1.3,0.3-1.7,0.6s-0.5,0.8-0.5,1.4c0,0.7,0.2,1.2,0.6,1.5
			C166.7,63.3,167.4,63.5,168.2,63.5z"/>
		<path class="st1" d="M178.1,52.3l0.5,1.2c0.6-0.5,1.3-0.8,1.9-1.1s1.4-0.4,2.2-0.4c0.7,0,1.3,0.1,1.8,0.2c0.5,0.2,0.9,0.4,1.3,0.7
			c0.3,0.3,0.6,0.8,0.7,1.4s0.2,1.3,0.2,2.1v8.3h-2v-8.3c0-0.5-0.1-1-0.2-1.4s-0.3-0.6-0.5-0.9c-0.2-0.2-0.5-0.4-0.8-0.4
			c-0.3-0.1-0.7-0.1-1.2-0.1c-0.6,0-1.2,0.1-1.8,0.3c-0.6,0.2-1.1,0.5-1.6,0.9v9.9h-2V52.3H178.1z"/>
		<path class="st1" d="M199.6,61.4c0,0.5-0.1,1-0.2,1.4c-0.1,0.5-0.3,0.9-0.7,1.2c-0.3,0.3-0.9,0.6-1.5,0.8
			c-0.7,0.2-1.6,0.3-2.7,0.3c-1,0-1.8-0.1-2.4-0.3s-1.1-0.4-1.5-0.8c-0.4-0.3-0.6-0.7-0.8-1.2c-0.1-0.5-0.2-1-0.2-1.7h2
			c0,0.4,0,0.7,0.1,1s0.3,0.5,0.5,0.7c0.2,0.2,0.5,0.3,0.9,0.4c0.4,0.1,0.9,0.1,1.5,0.1c0.7,0,1.2,0,1.7-0.2c0.4-0.1,0.7-0.2,1-0.4
			c0.2-0.2,0.4-0.4,0.4-0.7c0.1-0.3,0.1-0.6,0.1-0.9c0-0.3,0-0.6-0.1-0.9c-0.1-0.2-0.3-0.4-0.5-0.6c-0.2-0.2-0.6-0.3-1-0.4
			c-0.4-0.1-1-0.2-1.6-0.2c-0.9-0.1-1.6-0.2-2.2-0.3c-0.6-0.2-1.1-0.4-1.4-0.7c-0.4-0.3-0.6-0.6-0.8-1s-0.2-0.9-0.2-1.5
			c0-1.3,0.4-2.2,1.3-2.8c0.8-0.6,2-0.9,3.5-0.9c1.7,0,2.9,0.3,3.6,0.9c0.8,0.6,1.1,1.6,1.1,3h-1.9c0-0.4,0-0.7-0.1-1
			c-0.1-0.3-0.2-0.5-0.5-0.7c-0.2-0.2-0.5-0.3-0.9-0.4c-0.4-0.1-0.8-0.2-1.4-0.2c-0.9,0-1.6,0.2-2.1,0.5c-0.5,0.3-0.7,0.8-0.7,1.5
			c0,0.7,0.2,1.2,0.7,1.5c0.4,0.3,1.2,0.5,2.3,0.6c1,0.1,1.8,0.2,2.4,0.4c0.6,0.2,1.1,0.4,1.5,0.7c0.4,0.3,0.6,0.6,0.8,1
			C199.5,60.3,199.6,60.8,199.6,61.4z"/>
		<path class="st1" d="M204.3,64.8h-2V48.1h2v9.5h0l4.7-5.3h2.4l-5.4,5.9c0.1,0.2,0.4,0.5,0.7,0.8c0.3,0.3,0.7,0.7,1,1.2
			c0.4,0.4,0.8,0.9,1.2,1.3c0.4,0.5,0.8,0.9,1.2,1.3c0.4,0.4,0.7,0.8,1,1.2c0.3,0.3,0.5,0.6,0.7,0.8h-2.5l-5-5.9h0V64.8z"/>
		<path class="st1" d="M155.9,75.7c-0.6,0-1.1,0.1-1.6,0.2c-0.4,0.1-0.8,0.3-1,0.6c-0.3,0.3-0.4,0.7-0.6,1.3
			c-0.1,0.5-0.2,1.2-0.2,2.1v1.3c0,0.8,0.1,1.5,0.2,2.1c0.1,0.5,0.3,1,0.6,1.3c0.3,0.3,0.6,0.5,1,0.7c0.4,0.1,0.9,0.2,1.6,0.2
			c0.6,0,1,0,1.4-0.1c0.4-0.1,0.7-0.2,0.9-0.4c0.2-0.2,0.4-0.5,0.5-0.8c0.1-0.3,0.2-0.7,0.2-1.2h1.9c0,1.5-0.4,2.6-1.2,3.2
			c-0.8,0.6-2,0.9-3.7,0.9c-0.9,0-1.7-0.1-2.3-0.3c-0.7-0.2-1.2-0.5-1.7-0.9c-0.4-0.5-0.8-1.1-1-1.8c-0.2-0.8-0.3-1.7-0.3-2.8v-1.3
			c0-1.2,0.1-2.1,0.3-2.9c0.2-0.8,0.5-1.3,1-1.8s1-0.8,1.7-0.9c0.7-0.2,1.4-0.3,2.3-0.3c1.7,0,2.9,0.3,3.7,0.9
			c0.8,0.6,1.2,1.7,1.2,3.2h-1.9c0-0.4-0.1-0.8-0.2-1.1s-0.3-0.6-0.5-0.8c-0.2-0.2-0.5-0.3-0.9-0.4
			C156.9,75.8,156.5,75.7,155.9,75.7z"/>
		<path class="st1" d="M168.6,85.5c0.9,0,1.7,0,2.4-0.1c0.7-0.1,1.3-0.2,2-0.3v1.7c-0.6,0.1-1.2,0.2-2,0.3c-0.7,0.1-1.5,0.1-2.4,0.1
			c-0.9,0-1.7-0.1-2.4-0.2c-0.7-0.2-1.2-0.5-1.7-0.9c-0.4-0.4-0.8-1-1-1.8c-0.2-0.8-0.3-1.7-0.3-2.9v-1.3c0-1.2,0.1-2.1,0.3-2.9
			s0.5-1.3,1-1.8s1-0.8,1.6-0.9c0.7-0.2,1.4-0.3,2.3-0.3c0.8,0,1.6,0.1,2.2,0.3c0.6,0.2,1.2,0.5,1.6,0.9s0.7,1,1,1.8
			c0.2,0.8,0.3,1.7,0.3,2.8v1.5h-8.3c0,0.8,0.1,1.5,0.2,2c0.1,0.5,0.3,1,0.6,1.3c0.3,0.3,0.6,0.5,1.1,0.7S168,85.5,168.6,85.5z
			 M171.6,79.9c0-0.8,0-1.4-0.1-1.9c-0.1-0.5-0.2-0.9-0.5-1.3c-0.2-0.3-0.5-0.6-0.9-0.7c-0.4-0.1-0.9-0.2-1.6-0.2
			c-0.6,0-1.2,0.1-1.6,0.2c-0.4,0.1-0.8,0.4-1,0.7s-0.4,0.8-0.5,1.3c-0.1,0.5-0.2,1.2-0.2,2H171.6z"/>
		<path class="st1" d="M177.6,74.3l0.5,1.2c0.6-0.5,1.3-0.8,1.9-1.1s1.4-0.4,2.2-0.4c0.7,0,1.3,0.1,1.8,0.2c0.5,0.2,0.9,0.4,1.3,0.7
			c0.3,0.3,0.6,0.8,0.7,1.4s0.2,1.3,0.2,2.1v8.3h-2v-8.3c0-0.5-0.1-1-0.2-1.4s-0.3-0.6-0.5-0.9c-0.2-0.2-0.5-0.4-0.8-0.4
			c-0.3-0.1-0.7-0.1-1.2-0.1c-0.6,0-1.2,0.1-1.8,0.3c-0.6,0.2-1.1,0.5-1.6,0.9v9.9h-2V74.3H177.6z"/>
		<path class="st1" d="M189.9,76h-1.6v-1.3l1.6-0.3v-3l2-0.3v3.4h2.8V76h-2.8v7.9c0,0.5,0.1,0.9,0.3,1.1c0.2,0.3,0.6,0.4,1.1,0.4
			c0.4,0,0.7,0,0.9-0.1s0.5-0.1,0.8-0.2v1.7c-0.2,0.1-0.6,0.1-0.9,0.2c-0.4,0-0.7,0.1-1.1,0.1c-1,0-1.8-0.3-2.3-0.8
			c-0.5-0.5-0.7-1.3-0.7-2.4V76z"/>
		<path class="st1" d="M202,85.5c0.9,0,1.7,0,2.4-0.1s1.3-0.2,2-0.3v1.7c-0.6,0.1-1.2,0.2-2,0.3c-0.7,0.1-1.5,0.1-2.4,0.1
			c-0.9,0-1.7-0.1-2.3-0.2c-0.7-0.2-1.2-0.5-1.7-0.9c-0.4-0.4-0.8-1-1-1.8c-0.2-0.8-0.3-1.7-0.3-2.9v-1.3c0-1.2,0.1-2.1,0.3-2.9
			c0.2-0.8,0.5-1.3,1-1.8c0.4-0.4,1-0.8,1.6-0.9c0.6-0.2,1.4-0.3,2.3-0.3c0.9,0,1.6,0.1,2.2,0.3c0.6,0.2,1.2,0.5,1.6,0.9
			s0.7,1,1,1.8c0.2,0.8,0.3,1.7,0.3,2.8v1.5h-8.3c0,0.8,0.1,1.5,0.2,2c0.1,0.5,0.3,1,0.6,1.3c0.3,0.3,0.6,0.5,1.1,0.7
			S201.4,85.5,202,85.5z M205,79.9c0-0.8,0-1.4-0.1-1.9c-0.1-0.5-0.2-0.9-0.5-1.3s-0.5-0.6-0.9-0.7s-0.9-0.2-1.6-0.2
			c-0.6,0-1.2,0.1-1.6,0.2c-0.4,0.1-0.8,0.4-1,0.7s-0.4,0.8-0.5,1.3c-0.1,0.5-0.1,1.2-0.1,2H205z"/>
		<path class="st1" d="M215.1,75.9c-0.8,0-1.4,0.1-2,0.3c-0.5,0.2-1,0.5-1.5,1v9.7h-2V74.3h1.3l0.5,1.2c0.5-0.5,1.1-0.8,1.7-1.1
			c0.6-0.3,1.2-0.4,2-0.4V75.9z"/>
		<path class="st1" d="M226.8,71.5c-0.3-0.1-0.6-0.1-0.9-0.1c-0.5,0-0.9,0.1-1.1,0.4c-0.2,0.2-0.3,0.6-0.3,1v1.5h2.3V76h-2.3v10.9
			h-1.9V76H221v-1.3l1.7-0.3v-1.5c0-1,0.2-1.8,0.8-2.3s1.2-0.8,2.2-0.8c0.4,0,0.8,0,1.1,0.1s0.6,0.1,0.8,0.2v1.6
			C227.3,71.6,227.1,71.6,226.8,71.5z"/>
		<path class="st1" d="M239,81.3c0,1.1-0.1,2.1-0.3,2.8c-0.2,0.8-0.5,1.3-1,1.8s-1,0.8-1.6,1c-0.7,0.2-1.5,0.3-2.4,0.3
			c-0.9,0-1.7-0.1-2.4-0.3c-0.7-0.2-1.2-0.5-1.6-1s-0.7-1-0.9-1.8s-0.3-1.7-0.3-2.8v-1.3c0-1.1,0.1-2.1,0.3-2.8
			c0.2-0.8,0.5-1.3,1-1.8s1-0.8,1.6-1c0.7-0.2,1.4-0.3,2.3-0.3c0.9,0,1.7,0.1,2.4,0.3c0.7,0.2,1.2,0.5,1.6,1s0.8,1,1,1.8
			c0.2,0.8,0.3,1.7,0.3,2.8V81.3z M237.1,79.9c0-0.8-0.1-1.5-0.2-2.1c-0.1-0.5-0.3-1-0.5-1.3s-0.6-0.5-1-0.7c-0.4-0.1-1-0.2-1.6-0.2
			c-0.6,0-1.2,0.1-1.6,0.2c-0.4,0.1-0.8,0.3-1,0.7s-0.4,0.7-0.5,1.3c-0.1,0.5-0.2,1.2-0.2,2.1v1.3c0,0.8,0.1,1.5,0.2,2.1
			c0.1,0.5,0.3,1,0.5,1.3c0.2,0.3,0.6,0.5,1,0.7c0.4,0.1,1,0.2,1.6,0.2c0.6,0,1.2-0.1,1.6-0.2c0.4-0.1,0.8-0.3,1-0.7
			c0.3-0.3,0.4-0.7,0.5-1.3c0.1-0.5,0.2-1.2,0.2-2.1V79.9z"/>
		<path class="st1" d="M247.2,75.9c-0.8,0-1.4,0.1-2,0.3c-0.5,0.2-1,0.5-1.5,1v9.7h-2V74.3h1.3l0.5,1.2c0.5-0.5,1.1-0.8,1.7-1.1
			c0.6-0.3,1.2-0.4,2-0.4V75.9z"/>
		<path class="st1" d="M159.6,108.8l-0.4-1.2c-0.7,0.5-1.3,0.9-1.9,1.1c-0.6,0.2-1.4,0.4-2.2,0.4c-0.7,0-1.3-0.1-1.9-0.2
			c-0.5-0.1-0.9-0.4-1.3-0.7c-0.3-0.3-0.6-0.8-0.7-1.3s-0.2-1.3-0.2-2.1v-8.3h2v8.3c0,0.5,0.1,1,0.2,1.4c0.1,0.4,0.3,0.6,0.5,0.9
			c0.2,0.2,0.5,0.4,0.8,0.4c0.3,0.1,0.7,0.1,1.2,0.1c0.6,0,1.2-0.1,1.8-0.3c0.6-0.2,1.1-0.5,1.6-0.9v-9.8h2v12.5H159.6z"/>
		<path class="st1" d="M165.5,96.3l0.5,1.2c0.6-0.5,1.3-0.8,1.9-1.1s1.4-0.4,2.2-0.4c0.7,0,1.3,0.1,1.8,0.2c0.5,0.2,0.9,0.4,1.3,0.7
			c0.3,0.3,0.6,0.8,0.7,1.4s0.2,1.3,0.2,2.1v8.3h-2v-8.3c0-0.5-0.1-1-0.2-1.4s-0.3-0.6-0.5-0.9c-0.2-0.2-0.5-0.4-0.8-0.4
			c-0.3-0.1-0.7-0.1-1.2-0.1c-0.6,0-1.2,0.1-1.8,0.3c-0.6,0.2-1.1,0.5-1.6,0.9v9.9h-2V96.3H165.5z"/>
		<path class="st1" d="M181.7,109.1c-0.7,0-1.4-0.1-2-0.2c-0.6-0.2-1.1-0.4-1.5-0.9c-0.4-0.4-0.7-1-0.9-1.7
			c-0.2-0.7-0.3-1.7-0.3-2.8v-1.8c0-1.2,0.1-2.1,0.3-2.8c0.2-0.7,0.5-1.3,0.9-1.7c0.4-0.4,0.9-0.7,1.5-0.8c0.6-0.2,1.2-0.2,2-0.2
			c0.7,0,1.3,0.1,2,0.4c0.7,0.3,1.3,0.6,1.8,1v-5.4h2v16.8h-1.3l-0.4-1.2c-0.6,0.5-1.2,0.8-1.9,1.1S182.4,109.1,181.7,109.1z
			 M182,107.5c0.5,0,1.2-0.1,1.8-0.4c0.7-0.3,1.2-0.6,1.7-1.1v-6.8c-0.5-0.4-1-0.8-1.7-1c-0.6-0.3-1.3-0.4-1.8-0.4
			c-0.5,0-1,0.1-1.4,0.2c-0.4,0.1-0.7,0.3-0.9,0.6c-0.2,0.3-0.4,0.7-0.5,1.2c-0.1,0.5-0.2,1.2-0.2,2v1.7c0,0.8,0.1,1.5,0.2,2
			c0.1,0.5,0.3,0.9,0.5,1.2c0.2,0.3,0.6,0.5,0.9,0.7S181.5,107.5,182,107.5z"/>
		<path class="st1" d="M195.7,107.5c0.9,0,1.7,0,2.4-0.1c0.7-0.1,1.3-0.2,2-0.3v1.7c-0.6,0.1-1.2,0.2-2,0.3
			c-0.7,0.1-1.5,0.1-2.4,0.1c-0.9,0-1.7-0.1-2.4-0.2c-0.7-0.2-1.2-0.5-1.7-0.9c-0.4-0.4-0.8-1-1-1.8c-0.2-0.8-0.3-1.7-0.3-2.9v-1.3
			c0-1.2,0.1-2.1,0.3-2.9s0.5-1.3,1-1.8s1-0.8,1.6-0.9c0.7-0.2,1.4-0.3,2.3-0.3c0.8,0,1.6,0.1,2.2,0.3c0.6,0.2,1.2,0.5,1.6,0.9
			s0.7,1,1,1.8c0.2,0.8,0.3,1.7,0.3,2.8v1.5h-8.3c0,0.8,0.1,1.5,0.2,2c0.1,0.5,0.3,1,0.6,1.3c0.3,0.3,0.6,0.5,1.1,0.7
			S195.1,107.5,195.7,107.5z M198.7,101.9c0-0.8,0-1.4-0.1-1.9c-0.1-0.5-0.2-0.9-0.5-1.3c-0.2-0.3-0.5-0.6-0.9-0.7
			c-0.4-0.1-0.9-0.2-1.6-0.2c-0.6,0-1.2,0.1-1.6,0.2c-0.4,0.1-0.8,0.4-1,0.7s-0.4,0.8-0.5,1.3c-0.1,0.5-0.2,1.2-0.2,2H198.7z"/>
		<path class="st1" d="M208.8,97.9c-0.8,0-1.4,0.1-2,0.3c-0.5,0.2-1,0.5-1.5,1v9.7h-2V96.3h1.3l0.5,1.2c0.5-0.5,1.1-0.8,1.7-1.1
			c0.6-0.3,1.2-0.4,2-0.4V97.9z"/>
		<path class="st1" d="M215.8,106.7L215.8,106.7l3.5-10.4h2.1l-4.4,12.5h-2.2l-4.5-12.5h2.1L215.8,106.7z"/>
		<path class="st1" d="M223.5,92.1h2v2h-2V92.1z M223.6,96.3h2v12.5h-2V96.3z"/>
		<path class="st1" d="M238.4,105.4c0,0.5-0.1,1-0.2,1.4c-0.1,0.5-0.3,0.9-0.7,1.2c-0.3,0.3-0.9,0.6-1.5,0.8
			c-0.7,0.2-1.6,0.3-2.7,0.3c-1,0-1.8-0.1-2.4-0.3s-1.1-0.4-1.5-0.8c-0.4-0.3-0.6-0.7-0.8-1.2c-0.1-0.5-0.2-1-0.2-1.7h2
			c0,0.4,0,0.7,0.1,1c0.1,0.3,0.3,0.5,0.5,0.7c0.2,0.2,0.5,0.3,0.9,0.4c0.4,0.1,0.9,0.1,1.5,0.1c0.7,0,1.2,0,1.7-0.2
			c0.4-0.1,0.7-0.2,1-0.4c0.2-0.2,0.4-0.4,0.4-0.7c0.1-0.3,0.1-0.6,0.1-0.9c0-0.3,0-0.6-0.1-0.9c-0.1-0.2-0.3-0.4-0.5-0.6
			c-0.2-0.2-0.6-0.3-1-0.4c-0.4-0.1-1-0.2-1.6-0.2c-0.9-0.1-1.6-0.2-2.2-0.3c-0.6-0.2-1.1-0.4-1.4-0.7c-0.4-0.3-0.6-0.6-0.8-1
			c-0.2-0.4-0.2-0.9-0.2-1.5c0-1.3,0.4-2.2,1.3-2.8s2-0.9,3.5-0.9c1.7,0,2.9,0.3,3.7,0.9c0.8,0.6,1.1,1.6,1.1,3h-2
			c0-0.4,0-0.7-0.1-1c-0.1-0.3-0.2-0.5-0.5-0.7s-0.5-0.3-0.9-0.4c-0.4-0.1-0.8-0.2-1.4-0.2c-0.9,0-1.6,0.2-2.1,0.5
			c-0.5,0.3-0.7,0.8-0.7,1.5c0,0.7,0.2,1.2,0.7,1.5c0.4,0.3,1.2,0.5,2.3,0.6c1,0.1,1.8,0.2,2.4,0.4c0.6,0.2,1.1,0.4,1.5,0.7
			c0.4,0.3,0.6,0.6,0.8,1C238.3,104.3,238.4,104.8,238.4,105.4z"/>
		<path class="st1" d="M242.4,96.3l0.5,1.2c0.6-0.5,1.3-0.8,1.9-1.1s1.4-0.4,2.2-0.4c0.7,0,1.3,0.1,1.8,0.2c0.5,0.2,0.9,0.4,1.3,0.7
			c0.3,0.3,0.6,0.8,0.7,1.4c0.2,0.6,0.2,1.3,0.2,2.1v8.3h-2v-8.3c0-0.5-0.1-1-0.2-1.4c-0.1-0.4-0.3-0.6-0.5-0.9
			c-0.2-0.2-0.5-0.4-0.8-0.4c-0.3-0.1-0.7-0.1-1.2-0.1c-0.6,0-1.2,0.1-1.8,0.3c-0.6,0.2-1.1,0.5-1.6,0.9v9.9h-2V96.3H242.4z"/>
		<path class="st1" d="M254.3,92.1h2v2h-2V92.1z M254.3,96.3h2v12.5h-2V96.3z"/>
		<path class="st1" d="M260.8,96.3l0.5,1.2c0.6-0.5,1.3-0.8,1.9-1.1s1.4-0.4,2.2-0.4c0.7,0,1.3,0.1,1.8,0.2c0.5,0.2,0.9,0.4,1.3,0.7
			c0.3,0.3,0.6,0.8,0.7,1.4c0.2,0.6,0.2,1.3,0.2,2.1v8.3h-2v-8.3c0-0.5-0.1-1-0.2-1.4c-0.1-0.4-0.3-0.6-0.5-0.9
			c-0.2-0.2-0.5-0.4-0.8-0.4c-0.3-0.1-0.7-0.1-1.2-0.1c-0.6,0-1.2,0.1-1.8,0.3c-0.6,0.2-1.1,0.5-1.6,0.9v9.9h-2V96.3H260.8z"/>
		<path class="st1" d="M280.8,107.5c-0.6,0.4-1.2,0.7-1.8,1c-0.6,0.3-1.3,0.4-2,0.4c-0.7,0-1.4-0.1-2-0.2c-0.6-0.2-1.1-0.4-1.5-0.9
			c-0.4-0.4-0.7-1-0.9-1.7c-0.2-0.7-0.3-1.7-0.3-2.8v-1.5c0-1.2,0.1-2.1,0.3-2.8c0.2-0.7,0.5-1.3,0.9-1.7c0.4-0.4,0.9-0.7,1.5-0.8
			c0.6-0.2,1.2-0.2,2-0.2c0.7,0,1.4,0.1,2.1,0.4c0.7,0.3,1.3,0.6,1.9,1.1l0.5-1.2h1.3v12.5c0,1.6-0.4,2.7-1.1,3.4
			c-0.7,0.7-2,1-3.8,1c-0.6,0-1.3,0-2-0.1c-0.7-0.1-1.3-0.2-1.9-0.4v-1.8c0.6,0.2,1.3,0.3,1.9,0.4c0.7,0.1,1.3,0.1,2,0.1
			c0.5,0,1,0,1.3-0.1c0.4-0.1,0.7-0.2,0.9-0.5c0.2-0.2,0.4-0.5,0.5-0.9c0.1-0.4,0.2-0.8,0.2-1.4V107.5z M277.3,97.7
			c-0.5,0-1,0.1-1.4,0.2s-0.7,0.3-0.9,0.7s-0.4,0.7-0.5,1.2c-0.1,0.5-0.2,1.2-0.2,2v1.4c0,0.8,0.1,1.5,0.2,2
			c0.1,0.5,0.3,0.9,0.5,1.2c0.2,0.3,0.6,0.5,0.9,0.6c0.4,0.1,0.8,0.2,1.4,0.2c0.6,0,1.2-0.1,1.8-0.4c0.6-0.3,1.2-0.6,1.7-1v-6.5
			c-0.5-0.5-1.1-0.9-1.7-1.1S277.9,97.7,277.3,97.7z"/>
		<path class="st1" d="M295.6,105.4c0,0.5-0.1,1-0.2,1.4c-0.1,0.5-0.3,0.9-0.7,1.2c-0.3,0.3-0.9,0.6-1.5,0.8
			c-0.7,0.2-1.6,0.3-2.7,0.3c-1,0-1.8-0.1-2.4-0.3s-1.1-0.4-1.5-0.8c-0.4-0.3-0.6-0.7-0.8-1.2c-0.1-0.5-0.2-1-0.2-1.7h2
			c0,0.4,0,0.7,0.1,1c0.1,0.3,0.3,0.5,0.5,0.7c0.2,0.2,0.5,0.3,0.9,0.4c0.4,0.1,0.9,0.1,1.5,0.1c0.7,0,1.2,0,1.7-0.2
			c0.4-0.1,0.7-0.2,1-0.4c0.2-0.2,0.4-0.4,0.4-0.7c0.1-0.3,0.1-0.6,0.1-0.9c0-0.3,0-0.6-0.1-0.9c-0.1-0.2-0.3-0.4-0.5-0.6
			c-0.2-0.2-0.6-0.3-1-0.4c-0.4-0.1-1-0.2-1.6-0.2c-0.9-0.1-1.6-0.2-2.2-0.3c-0.6-0.2-1.1-0.4-1.4-0.7c-0.4-0.3-0.6-0.6-0.8-1
			c-0.2-0.4-0.2-0.9-0.2-1.5c0-1.3,0.4-2.2,1.3-2.8s2-0.9,3.5-0.9c1.7,0,2.9,0.3,3.7,0.9c0.8,0.6,1.1,1.6,1.1,3h-2
			c0-0.4,0-0.7-0.1-1c-0.1-0.3-0.2-0.5-0.5-0.7s-0.5-0.3-0.9-0.4c-0.4-0.1-0.8-0.2-1.4-0.2c-0.9,0-1.6,0.2-2.1,0.5
			c-0.5,0.3-0.7,0.8-0.7,1.5c0,0.7,0.2,1.2,0.7,1.5c0.4,0.3,1.2,0.5,2.3,0.6c1,0.1,1.8,0.2,2.4,0.4c0.6,0.2,1.1,0.4,1.5,0.7
			c0.4,0.3,0.6,0.6,0.8,1C295.5,104.3,295.6,104.8,295.6,105.4z"/>
		<path class="st1" d="M300.1,97.6c0.7-0.5,1.3-0.8,1.9-1.1s1.3-0.4,2-0.4c0.8,0,1.5,0.1,2,0.4c0.5,0.3,0.9,0.6,1.2,1.1
			c0.6-0.5,1.3-0.8,1.9-1.1c0.6-0.3,1.3-0.4,2.1-0.4c0.7,0,1.3,0.1,1.8,0.2s0.8,0.4,1.1,0.8s0.4,0.8,0.5,1.3
			c0.1,0.5,0.1,1.1,0.1,1.8v8.7h-2v-8.7c0-0.9-0.2-1.5-0.5-1.9c-0.3-0.3-0.9-0.5-1.7-0.5c-0.5,0-1,0.1-1.5,0.3s-1.1,0.5-1.6,0.9v9.9
			h-2v-8.7c0-0.5,0-0.8-0.1-1.1c-0.1-0.3-0.2-0.6-0.3-0.8c-0.2-0.2-0.4-0.3-0.7-0.4c-0.3-0.1-0.6-0.1-1-0.1c-0.5,0-1,0.1-1.5,0.3
			c-0.5,0.2-1.1,0.5-1.6,0.9v9.9h-2V96.3h1.3L300.1,97.6z"/>
		<path class="st1" d="M317.9,92.1h2v2h-2V92.1z M318,96.3h2v12.5h-2V96.3z"/>
		<path class="st1" d="M323.2,92.1h2v16.8h-2V92.1z"/>
		<path class="st1" d="M330.3,110.2c0,1.1-0.2,1.9-0.7,2.4c-0.4,0.5-1.2,0.8-2.2,0.8c-0.4,0-0.7,0-1-0.1c-0.3,0-0.6-0.1-0.8-0.2
			v-1.7c0.2,0,0.4,0.1,0.7,0.2c0.3,0,0.5,0.1,0.8,0.1c0.5,0,0.8-0.1,1-0.4c0.2-0.3,0.3-0.6,0.3-1.1V96.3h2V110.2z M328.3,92.1h2v2
			h-2V92.1z"/>
		<path class="st1" d="M343.6,103.3c0,1.1-0.1,2.1-0.3,2.8c-0.2,0.8-0.5,1.3-1,1.8s-1,0.8-1.6,1c-0.7,0.2-1.5,0.3-2.4,0.3
			c-0.9,0-1.7-0.1-2.4-0.3c-0.7-0.2-1.2-0.5-1.6-1s-0.7-1-0.9-1.8s-0.3-1.7-0.3-2.8v-1.3c0-1.1,0.1-2.1,0.3-2.8
			c0.2-0.8,0.5-1.3,1-1.8s1-0.8,1.6-1c0.7-0.2,1.4-0.3,2.3-0.3c0.9,0,1.7,0.1,2.4,0.3c0.7,0.2,1.2,0.5,1.6,1s0.8,1,1,1.8
			c0.2,0.8,0.3,1.7,0.3,2.8V103.3z M341.7,101.9c0-0.8-0.1-1.5-0.2-2.1c-0.1-0.5-0.3-1-0.5-1.3s-0.6-0.5-1-0.7
			c-0.4-0.1-1-0.2-1.6-0.2c-0.6,0-1.2,0.1-1.6,0.2c-0.4,0.1-0.8,0.3-1,0.7s-0.4,0.7-0.5,1.3c-0.1,0.5-0.2,1.2-0.2,2.1v1.3
			c0,0.8,0.1,1.5,0.2,2.1c0.1,0.5,0.3,1,0.5,1.3c0.2,0.3,0.6,0.5,1,0.7c0.4,0.1,1,0.2,1.6,0.2c0.6,0,1.2-0.1,1.6-0.2
			c0.4-0.1,0.8-0.3,1-0.7c0.3-0.3,0.4-0.7,0.5-1.3c0.1-0.5,0.2-1.2,0.2-2.1V101.9z"/>
	</g>
	
		<rect x="333.1" y="103.1" transform="matrix(0.5823 -0.8129 0.8129 0.5823 56.9213 318.5787)" class="st1" width="10.9" height="1.5"/>
	<g>
		<path class="st2" d="M153.8,136.8L153.8,136.8l2.3-7.1h1.4l-3,8.5h-1.5l-3-8.5h1.4L153.8,136.8z"/>
		<path class="st2" d="M159.1,126.8h1.4v1.4h-1.4V126.8z M159.1,129.7h1.3v8.5h-1.3V129.7z"/>
		<path class="st2" d="M165.6,138.4c-0.5,0-0.9-0.1-1.3-0.2c-0.4-0.1-0.7-0.3-1-0.6c-0.3-0.3-0.5-0.7-0.6-1.2s-0.2-1.1-0.2-1.9v-1.2
			c0-0.8,0.1-1.4,0.2-1.9c0.1-0.5,0.4-0.9,0.6-1.2c0.3-0.3,0.6-0.5,1-0.6c0.4-0.1,0.8-0.2,1.3-0.2c0.4,0,0.9,0.1,1.3,0.3
			c0.4,0.2,0.9,0.4,1.2,0.7v-3.7h1.3v11.4h-0.9l-0.3-0.8c-0.4,0.3-0.8,0.6-1.3,0.7C166.5,138.3,166.1,138.4,165.6,138.4z
			 M165.8,137.2c0.4,0,0.8-0.1,1.2-0.3c0.4-0.2,0.8-0.4,1.2-0.8v-4.6c-0.3-0.3-0.7-0.5-1.1-0.7s-0.9-0.3-1.2-0.3
			c-0.4,0-0.7,0-0.9,0.1s-0.5,0.2-0.6,0.4c-0.2,0.2-0.3,0.5-0.4,0.8c-0.1,0.4-0.1,0.8-0.1,1.3v1.1c0,0.5,0,1,0.1,1.3
			s0.2,0.6,0.4,0.8c0.2,0.2,0.4,0.4,0.6,0.4S165.4,137.2,165.8,137.2z"/>
		<path class="st2" d="M175.1,137.2c0.6,0,1.1,0,1.6-0.1s0.9-0.1,1.3-0.2v1.1c-0.4,0.1-0.8,0.2-1.3,0.2s-1,0.1-1.6,0.1
			c-0.6,0-1.1-0.1-1.6-0.2c-0.5-0.1-0.8-0.3-1.1-0.6c-0.3-0.3-0.5-0.7-0.7-1.2c-0.2-0.5-0.2-1.2-0.2-2v-0.9c0-0.8,0.1-1.4,0.2-1.9
			c0.1-0.5,0.4-0.9,0.7-1.2c0.3-0.3,0.7-0.5,1.1-0.6c0.4-0.1,1-0.2,1.5-0.2c0.6,0,1.1,0.1,1.5,0.2c0.4,0.1,0.8,0.3,1.1,0.6
			s0.5,0.7,0.6,1.2c0.1,0.5,0.2,1.2,0.2,1.9v1h-5.7c0,0.6,0,1,0.1,1.4c0.1,0.4,0.2,0.6,0.4,0.9c0.2,0.2,0.4,0.4,0.7,0.4
			C174.3,137.2,174.7,137.2,175.1,137.2z M177.1,133.4c0-0.5,0-1-0.1-1.3s-0.2-0.6-0.3-0.9c-0.2-0.2-0.4-0.4-0.6-0.5
			c-0.3-0.1-0.6-0.1-1.1-0.1c-0.4,0-0.8,0-1.1,0.1c-0.3,0.1-0.5,0.2-0.7,0.5c-0.2,0.2-0.3,0.5-0.4,0.9c-0.1,0.4-0.1,0.8-0.1,1.3
			H177.1z"/>
		<path class="st2" d="M181.2,129.7l0.3,0.8c0.4-0.3,0.9-0.6,1.3-0.7c0.4-0.2,0.9-0.3,1.5-0.3c0.5,0,0.9,0.1,1.3,0.2
			c0.4,0.1,0.6,0.3,0.9,0.5c0.2,0.2,0.4,0.5,0.5,0.9s0.2,0.9,0.2,1.4v5.7h-1.3v-5.7c0-0.4,0-0.7-0.1-0.9c-0.1-0.2-0.2-0.4-0.3-0.6
			s-0.3-0.2-0.6-0.3s-0.5-0.1-0.8-0.1c-0.4,0-0.8,0.1-1.2,0.2s-0.8,0.4-1.1,0.6v6.7h-1.3v-8.5H181.2z"/>
		<path class="st2" d="M193.4,130.8h-1.1v-0.9l1.1-0.2v-2.1l1.3-0.2v2.3h1.9v1.1h-1.9v5.4c0,0.3,0.1,0.6,0.2,0.8
			c0.1,0.2,0.4,0.3,0.7,0.3c0.2,0,0.4,0,0.6-0.1c0.2,0,0.4-0.1,0.5-0.1v1.1c-0.2,0.1-0.4,0.1-0.6,0.1s-0.5,0.1-0.8,0.1
			c-0.7,0-1.2-0.2-1.6-0.5c-0.3-0.4-0.5-0.9-0.5-1.7V130.8z"/>
		<path class="st2" d="M198.6,126.8h1.4v1.4h-1.4V126.8z M198.6,129.7h1.3v8.5h-1.3V129.7z"/>
		<path class="st2" d="M202.2,126.8h1.3v11.4h-1.3V126.8z"/>
		<path class="st2" d="M213.3,129.5c0.5,0,0.9,0.1,1.3,0.2c0.4,0.1,0.7,0.3,1,0.6c0.3,0.3,0.5,0.7,0.6,1.2c0.1,0.5,0.2,1.1,0.2,1.9
			v1.2c0,0.8-0.1,1.4-0.2,1.9c-0.1,0.5-0.4,0.9-0.6,1.2c-0.3,0.3-0.6,0.5-1,0.6s-0.8,0.2-1.3,0.2c-0.4,0-0.9-0.1-1.3-0.3
			c-0.4-0.2-0.9-0.4-1.2-0.7v3.6h-1.3v-11.4h0.9l0.3,0.8c0.4-0.3,0.8-0.5,1.3-0.7C212.4,129.6,212.9,129.5,213.3,129.5z
			 M213.2,130.6c-0.4,0-0.8,0.1-1.2,0.3c-0.4,0.2-0.8,0.4-1.2,0.7v4.6c0.3,0.3,0.7,0.5,1.1,0.7s0.9,0.3,1.2,0.3c0.4,0,0.7,0,0.9-0.1
			c0.3-0.1,0.5-0.2,0.6-0.4s0.3-0.5,0.4-0.8c0.1-0.4,0.1-0.8,0.1-1.4v-1.1c0-0.5,0-1-0.1-1.3s-0.2-0.6-0.4-0.8s-0.4-0.4-0.6-0.4
			C213.8,130.7,213.5,130.6,213.2,130.6z"/>
		<path class="st2" d="M222.2,130.7c-0.5,0-1,0.1-1.3,0.2c-0.4,0.1-0.7,0.4-1,0.7v6.6h-1.3v-8.5h0.9l0.3,0.8
			c0.4-0.3,0.7-0.6,1.1-0.7s0.9-0.3,1.4-0.3V130.7z"/>
		<path class="st2" d="M223.3,135.9c0-0.7,0.2-1.3,0.7-1.7c0.4-0.4,1.1-0.6,2-0.7l2.9-0.2v-1c0-0.3,0-0.5-0.1-0.8
			c-0.1-0.2-0.2-0.4-0.3-0.5c-0.1-0.1-0.3-0.2-0.6-0.3c-0.3-0.1-0.6-0.1-1-0.1c-0.7,0-1.2,0.1-1.5,0.4c-0.3,0.2-0.4,0.6-0.4,1.2
			h-1.3c0-0.5,0.1-0.9,0.2-1.3c0.1-0.3,0.4-0.6,0.6-0.8c0.3-0.2,0.6-0.4,1-0.5c0.4-0.1,0.9-0.1,1.4-0.1c0.6,0,1.1,0.1,1.5,0.2
			c0.4,0.1,0.8,0.3,1,0.5c0.3,0.2,0.5,0.5,0.6,0.9s0.2,0.8,0.2,1.3v5.9h-0.9l-0.3-0.8c-0.4,0.3-0.8,0.6-1.3,0.8
			c-0.4,0.2-0.9,0.3-1.5,0.3c-1,0-1.7-0.2-2.2-0.6C223.6,137.3,223.3,136.7,223.3,135.9z M226.4,137.2c0.5,0,1-0.1,1.4-0.2
			s0.7-0.4,1.1-0.7v-2.1l-2.7,0.3c-0.5,0.1-0.9,0.2-1.1,0.4c-0.2,0.2-0.4,0.5-0.4,1c0,0.5,0.1,0.8,0.4,1S225.8,137.2,226.4,137.2z"
			/>
		<path class="st2" d="M233.6,138.2h-1.3v-11.4h1.3v6.5h0l3.2-3.6h1.6l-3.7,4c0.1,0.1,0.2,0.3,0.5,0.5c0.2,0.2,0.4,0.5,0.7,0.8
			s0.5,0.6,0.8,0.9c0.3,0.3,0.6,0.6,0.8,0.9c0.3,0.3,0.5,0.6,0.7,0.8c0.2,0.2,0.4,0.4,0.5,0.5H237l-3.4-4h0V138.2z"/>
		<path class="st2" d="M246.4,135.8c0,0.3,0,0.7-0.1,1c-0.1,0.3-0.2,0.6-0.5,0.8s-0.6,0.4-1,0.5s-1.1,0.2-1.8,0.2
			c-0.7,0-1.2-0.1-1.7-0.2c-0.4-0.1-0.8-0.3-1-0.5c-0.3-0.2-0.4-0.5-0.5-0.8c-0.1-0.3-0.2-0.7-0.2-1.1h1.3c0,0.3,0,0.5,0.1,0.7
			c0.1,0.2,0.2,0.4,0.3,0.5c0.2,0.1,0.4,0.2,0.6,0.3s0.6,0.1,1,0.1c0.5,0,0.8,0,1.1-0.1s0.5-0.2,0.7-0.3c0.2-0.1,0.3-0.3,0.3-0.4
			c0-0.2,0.1-0.4,0.1-0.6c0-0.2,0-0.4-0.1-0.6s-0.2-0.3-0.3-0.4s-0.4-0.2-0.7-0.3c-0.3-0.1-0.7-0.1-1.1-0.2c-0.6,0-1.1-0.1-1.5-0.2
			s-0.7-0.3-1-0.5c-0.2-0.2-0.4-0.4-0.5-0.7c-0.1-0.3-0.2-0.6-0.2-1c0-0.9,0.3-1.5,0.9-1.9c0.6-0.4,1.4-0.6,2.4-0.6
			c1.1,0,2,0.2,2.5,0.6c0.5,0.4,0.8,1.1,0.8,2.1h-1.3c0-0.2,0-0.5-0.1-0.7c-0.1-0.2-0.2-0.4-0.3-0.5c-0.1-0.1-0.3-0.2-0.6-0.3
			c-0.2-0.1-0.6-0.1-0.9-0.1c-0.6,0-1.1,0.1-1.4,0.3s-0.5,0.6-0.5,1.1c0,0.5,0.2,0.8,0.5,1c0.3,0.2,0.8,0.3,1.6,0.4
			c0.7,0.1,1.2,0.1,1.6,0.2c0.4,0.1,0.8,0.3,1,0.4c0.3,0.2,0.4,0.4,0.5,0.7C246.4,135.1,246.4,135.4,246.4,135.8z"/>
		<path class="st2" d="M248.2,126.8h1.4v1.4h-1.4V126.8z M248.3,129.7h1.3v8.5h-1.3V129.7z"/>
		<path class="st2" d="M258.3,135.8c0,0.3,0,0.7-0.1,1c-0.1,0.3-0.2,0.6-0.5,0.8s-0.6,0.4-1,0.5s-1.1,0.2-1.8,0.2
			c-0.7,0-1.2-0.1-1.7-0.2s-0.8-0.3-1-0.5c-0.3-0.2-0.4-0.5-0.5-0.8c-0.1-0.3-0.2-0.7-0.2-1.1h1.3c0,0.3,0,0.5,0.1,0.7
			c0.1,0.2,0.2,0.4,0.3,0.5c0.2,0.1,0.4,0.2,0.6,0.3s0.6,0.1,1,0.1c0.5,0,0.8,0,1.1-0.1s0.5-0.2,0.7-0.3c0.2-0.1,0.3-0.3,0.3-0.4
			c0-0.2,0.1-0.4,0.1-0.6c0-0.2,0-0.4-0.1-0.6s-0.2-0.3-0.3-0.4s-0.4-0.2-0.7-0.3c-0.3-0.1-0.7-0.1-1.1-0.2c-0.6,0-1.1-0.1-1.5-0.2
			s-0.7-0.3-1-0.5c-0.2-0.2-0.4-0.4-0.5-0.7c-0.1-0.3-0.2-0.6-0.2-1c0-0.9,0.3-1.5,0.9-1.9c0.6-0.4,1.4-0.6,2.4-0.6
			c1.1,0,2,0.2,2.5,0.6c0.5,0.4,0.8,1.1,0.8,2.1h-1.3c0-0.2,0-0.5-0.1-0.7c-0.1-0.2-0.2-0.4-0.3-0.5c-0.1-0.1-0.3-0.2-0.6-0.3
			c-0.2-0.1-0.6-0.1-0.9-0.1c-0.6,0-1.1,0.1-1.4,0.3s-0.5,0.6-0.5,1.1c0,0.5,0.2,0.8,0.5,1c0.3,0.2,0.8,0.3,1.6,0.4
			c0.7,0.1,1.2,0.1,1.6,0.2c0.4,0.1,0.8,0.3,1,0.4c0.3,0.2,0.4,0.4,0.5,0.7C258.3,135.1,258.3,135.4,258.3,135.8z"/>
	</g>
</g>
<g id="Navnetræk">
	<g>
		<path class="st3" d="M123,64.9c-2.2,0-4-1.8-4-4c0-2.2,1.8-4,4-4c2.2,0,4,1.8,4,4C127,63.1,125.2,64.9,123,64.9L123,64.9z"/>
		<path class="st3" d="M21,65.4c-5.8,0-10.3-5.1-10.3-11.2c0-7.3,3.5-12,10-12c2.2,0,4.6,1.6,5.5,3.5V35.4h1.7
			c2.6,0,3.8,1.5,3.8,3.7v15.6C31.6,61.1,28.6,65.4,21,65.4L21,65.4z M21.2,46.9c-2.8,0-5.1,2.7-5.1,6.3c0,4.6,2,7.6,5.2,7.6
			c3.1,0,4.8-2.3,4.8-6.3C26.1,48.9,24.2,46.9,21.2,46.9L21.2,46.9z"/>
		<path class="st3" d="M52.2,49.9c-0.7-1.3-2.8-2.3-6-2.3c-3.2,0-6.2,2.8-6.2,6.1c0,4.3,2.6,6.6,6.3,6.6c3.2,0,5-1,5.8-2.1h0.2v3.7
			c0,1.4-2.6,3-6.6,3c-6.1,0-11.3-4.3-11.3-10.6c0-6.3,4.4-11.4,11.9-11.4c3.5,0,6,1.3,6,2.1v4.9H52.2L52.2,49.9z"/>
		<path class="st3" d="M66.3,65.4c-5.5,0-9.8-3.6-9.8-10V42.8h1c3.2,0,4.5,1.4,4.5,3.9v8.1c0,4.1,2,5.7,4.5,5.7
			c2.3,0,3.9-1.6,3.9-5.3V42.8h1c3.2,0,4.5,1.4,4.5,3.9V55C75.9,61.9,72.7,65.4,66.3,65.4L66.3,65.4z"/>
		<path class="st3" d="M109.9,64.9c-3,0-4.2-1.4-4.2-4v-8.5c0-3.6-1.6-5.2-4.1-5.2c-2.2,0-3.7,1.6-3.7,4.6v13.2h-1.5
			c-2.4,0-4-1.4-4-4v-8.5c0-3.6-1.7-5.2-4.1-5.2c-2.1,0-3.7,1.7-3.7,4.7v13h-1.5c-2.3,0-4-1.5-4-4v-8.6c0-6,3.2-10,9.8-10
			c2.9,0,5.1,1.3,6.7,3.4c1.3-2,3.7-3.4,6.4-3.4c5.1,0,9.2,3.1,9.2,9.3v13.3H109.9L109.9,64.9z"/>
	</g>
</g>
</svg>
