<?xml version="1.0" encoding="utf-8"?>
<!-- Generator: Adobe Illustrator 19.2.0, SVG Export Plug-In . SVG Version: 6.00 Build 0)  -->
<svg version="1.1" id="Farver" xmlns="http://www.w3.org/2000/svg" xmlns:xlink="http://www.w3.org/1999/xlink" x="0px" y="0px"
	 viewBox="0 0 222.1 167.4" style="enable-background:new 0 0 222.1 167.4;" xml:space="preserve">
<style type="text/css">
	.st0{opacity:0.5;fill-rule:evenodd;clip-rule:evenodd;fill:none;stroke:#FFFFFF;stroke-width:0.6;stroke-miterlimit:10;}
	.st1{fill-rule:evenodd;clip-rule:evenodd;fill:none;stroke:#FFFFFF;stroke-width:1.6;stroke-miterlimit:10;}
	.st2{fill-rule:evenodd;clip-rule:evenodd;fill:#FFFFFF;}
</style>
<path class="st0" d="M128.3,3.7c66.4-8.1,93.5,29.3,93.5,81s-40.1,88.7-93.5,81c-51.1-7.4-100.1-29.6-94.4-81
	C39.6,33.4,77.1,9.9,128.3,3.7z"/>
<path class="st1" d="M95.7,3.7c66.4-8.1,93.5,29.3,93.5,81s-40.1,88.7-93.5,81C44.6,158.1-4.4,136,1.3,84.6
	C6.9,33.4,44.4,9.9,95.7,3.7z"/>
<path class="st2" d="M127.4,0.1c3.5-0.4,4.9,1.5,4.9,4.2s-2.1,4.6-4.9,4.2c-2.7-0.4-5.2-1.5-4.9-4.2C122.7,1.6,124.7,0.4,127.4,0.1z
	"/>
</svg>
