<?xml version="1.0" encoding="utf-8"?>
<!-- Generator: Adobe Illustrator 19.2.0, SVG Export Plug-In . SVG Version: 6.00 Build 0)  -->
<svg version="1.1" id="Farver" xmlns="http://www.w3.org/2000/svg" xmlns:xlink="http://www.w3.org/1999/xlink" x="0px" y="0px"
	 viewBox="0 0 106.9 93.1" style="enable-background:new 0 0 106.9 93.1;" xml:space="preserve">
<style type="text/css">
	.st0{fill-rule:evenodd;clip-rule:evenodd;fill:#8D1733;}
	.st1{fill:#FFFFFF;}
	.st2{fill:none;}
</style>
<path class="st0" d="M53.8,0.6c37.6-4.6,53,16.6,53,45.9s-22.8,50.3-53,45.9C24.8,88.3-3,75.7,0.3,46.5C3.5,17.5,24.7,4.1,53.8,0.6z
	"/>
<path class="st1" d="M67.6,68.3c0.7-0.9,0.5-2.2-0.4-2.8l-25.5-19l25.5-19c0.9-0.7,1.1-1.9,0.4-2.9c-0.7-0.9-1.9-1.1-2.9-0.4
	L37.1,44.8c-0.5,0.4-0.8,1-0.8,1.6c0,0.7,0.3,1.3,0.8,1.6l27.6,20.6c0.4,0.3,0.8,0.4,1.2,0.4C66.6,69.1,67.2,68.9,67.6,68.3
	L67.6,68.3z M67.6,68.3"/>
<rect x="36.2" y="23.8" class="st2" width="31.8" height="45.4"/>
</svg>
